[gd_scene load_steps=6 format=2]

[ext_resource path="res://sprites/logo.png" type="Texture" id=1]
[ext_resource path="res://renders/stills/title.jpg" type="Texture" id=2]
[ext_resource path="res://fonts/paragraph.tres" type="DynamicFont" id=3]
[ext_resource path="res://scenes/TitleScreen.gd" type="Script" id=4]
[ext_resource path="res://sounds/chanting.ogg" type="AudioStream" id=5]

[node name="TitleScreen" type="Control"]
anchor_right = 1.0
anchor_bottom = 1.0
script = ExtResource( 4 )
__meta__ = {
"_edit_use_anchors_": false
}

[node name="Texture_Background" type="TextureRect" parent="."]
anchor_right = 1.0
anchor_bottom = 1.0
texture = ExtResource( 2 )

[node name="Texture_Logo" type="TextureRect" parent="."]
anchor_left = 0.5
anchor_top = 0.5
anchor_right = 0.5
anchor_bottom = 0.5
margin_left = -364.0
margin_top = -40.0
margin_right = 364.0
margin_bottom = 40.0
texture = ExtResource( 1 )
__meta__ = {
"_edit_use_anchors_": false
}

[node name="Label_Prompt" type="Label" parent="."]
anchor_top = 1.0
anchor_right = 1.0
anchor_bottom = 1.0
margin_top = -292.973
margin_bottom = -244.973
rect_min_size = Vector2( 0, 48 )
custom_fonts/font = ExtResource( 3 )
custom_colors/font_color = Color( 0.227451, 0.14902, 0.0705882, 1 )
text = "Press left mouse button to start"
align = 1
__meta__ = {
"_edit_use_anchors_": false
}

[node name="Label_ByLine" type="Label" parent="."]
anchor_top = 1.0
anchor_right = 1.0
anchor_bottom = 1.0
margin_top = -49.9999
margin_bottom = -1.99994
rect_min_size = Vector2( 0, 48 )
custom_fonts/font = ExtResource( 3 )
custom_colors/font_color = Color( 0.227451, 0.14902, 0.0705882, 1 )
text = "© John Gabriel 2020, licensed under GNU GPLv3
Made in Godot Engine 3.2.3 for Ludum Dare 47"
align = 1
__meta__ = {
"_edit_use_anchors_": false
}

[node name="Audio_BGM" type="AudioStreamPlayer" parent="."]
stream = ExtResource( 5 )

[node name="Tween" type="Tween" parent="."]
