[gd_scene load_steps=3 format=2]

[ext_resource path="res://renders/stills/altar.jpg" type="Texture" id=1]
[ext_resource path="res://object/RenderShow.gd" type="Script" id=2]

[node name="RenderShow" type="TextureRect"]
anchor_right = 1.0
anchor_bottom = 1.0
texture = ExtResource( 1 )
script = ExtResource( 2 )
__meta__ = {
"_edit_use_anchors_": false
}

[node name="Timer_FrameTick" type="Timer" parent="."]

[node name="Tween" type="Tween" parent="."]
[connection signal="timeout" from="Timer_FrameTick" to="." method="_frame_tick"]
